{
    "@context": [
        "https://www.w3.org/2018/credentials/v1",
        "https://registry.lab.gaia-x.eu/2206-unreleased/api/shape"
    ],
    "type": [
        "VerifiableCredential",
        "ServiceOfferingExperimental"
    ],
    "id": "https://delta-dao.com/.well-known/serviceEuProGigantPortal.json",
    "credentialSubject": {
        "id": "https://delta-dao.com/.well-known/serviceEuProGigantPortal.json",
        "gx-service-offering:providedBy": "https://delta-dao.com/.well-known/participantDeltaDAO.json",
        "gx-service-offering:name": "EuProGigant - European Production Giganet Gaia-X Portal",
        "gx-service-offering:description": "Gaia-X Portal of the Gaia-X lighthouse project “EuProGigant - European Production Giganet",
        "gx-service-offering:webAddress": "https://euprogigant.portal.minimal-gaia-x.eu/",
        "gx-service-offering:serviceModel": "free web service",
        "gx-service-offering:servicePrice": [
            {
                "gx-service-offering:servicePriceCurrency": "EUR",
                "gx-service-offering:servicePriceValue": "0"
            }
        ],
        "gx-service-offering:termsAndConditions": [
            {
                "gx-service-offering:url": "https://portal.minimal-gaia-x.eu/imprint",
                "gx-service-offering:hash": "ec71c2a7c9482823f83df7470da93f0447db5f6101b6124521518d610e9785f7"
            }
        ],
        "gx-service-offering:gdpr": [
            {
                "gx-service-offering:imprint": "https://portal.minimal-gaia-x.eu/imprint"
            },
            {
                "gx-service-offering:privacyPolicy": "https://portal.minimal-gaia-x.eu/privacy/en"
            }
        ],
        "gx-service-offering:dataProtectionRegime": [
            "GDPR2016"
        ],
        "gx-service-offering:dataExport": [
            {
                "gx-service-offering:requestType": "email",
                "gx-service-offering:accessType": "digital",
                "gx-service-offering:formatType": "mime/png"
            }
        ],
        "gx-service-offering:dependsOn": [
            "https://euprogigant.com/.well-known/serviceCatalogueCacheEuProGigant.json",
            "https://delta-dao.com/.well-known/serviceNetlify.json",
            "https://delta-dao.com/.well-known/serviceGaiaxDLTNetwork.json"
        ]
    },
    "issuer": "did:web:delta-dao.com",
    "issuanceDate": "2022-09-25T23:23:23.235Z",
    "proof": {
        "type": "JsonWebSignature2020",
        "created": "2023-02-09T16:00:15.219Z",
        "proofPurpose": "assertionMethod",
        "verificationMethod": "did:web:raw.githubusercontent.com:egavard:payload-sign:master",
        "jws": "eyJhbGciOiJQUzI1NiIsImI2NCI6ZmFsc2UsImNyaXQiOlsiYjY0Il19..BD88BYIpXnVJ-5K7nNteKM-uN6Mkdc49rDV7GxvmyqZ1ROHvFWroBaJE3NL1fEgYWV39EoZH1EJQlil5qbPwXHvGrK0NrT--gu7RNXnBZTtba-FXuSiawIOiMGQpEaXjRt7cdG22AlWgPb4kty19lkHT0g7suPDXZUhKe6I4nJheR4I-lc74p9qt_noqMAVzPD5aSkfiybPhDUCHOAV2hkFXfW2KTtBMxaj5G9nJlhcx83eBIqlCQwSGimTgtfwzZKpMsyTajaXOzBGStfox_vqIaAjZ_FPVKcimI0c3UXwTW0A0JHs6YdmT5BQ0N90iWIZvVRsW4WFWf0iwPGilow"
    }
}