{
  "@context": [
	"https://www.w3.org/2018/credentials/v1",
	"https://registry.lab.gaia-x.eu/development/api/trusted-shape-registry/v1/shapes/jsonld/trustframework#"		
  ],
  "type": "VerifiablePresentation",
  "verifiableCredential": [
    {
      "@context": [
        "https://www.w3.org/2018/credentials/v1",
        "https://registry.lab.gaia-x.eu/development/api/trusted-shape-registry/v1/shapes/jsonld/trustframework#"		
      ],
      "type": "VerifiableCredential",
      "id": "https://arlabdevelopments.com/.well-known/instantiatedDataSpaceConnector_2210.json",
      "issuer": "did:web:arlabdevelopments.com",
      "issuanceDate": "2023-04-17T00:00:00.000Z",
      "credentialSubject": {
        "id": "https://arlabdevelopments.com/.well-known/instantiatedDataSpaceConnector_2210.json",
        "type": ["gx:ServiceOffering", "gx:SoftwareResource", "gx:InstantiatedVirtualResource"],
        "gx:providedBy": {
          "id": "did:web:arlabdevelopments.com"
        },
		"gx:termsAndConditions": [
			{
			  "gx:URL": "https://www.arsys.net/legal",
			  "gx:hash": "70cf73cbb47217865004ae15949348f65272dda4da862e54c6b83615e8256809"
			}
		],
		"gx:policy": "default:allow",		
		"gx:dataAccountExport": [
			{
				"gx:requestType": "email",
				"gx:accessType": "digital",
				"gx:formatType": "text/html"
			},
			{
				"gx:requestType": "supportCenter",
				"gx:accessType": "physical",
				"gx:formatType": "text/html"
			},
			{
				"gx:requestType": "webform",
				"gx:accessType": "digital",
				"gx:formatType": "text/html"
			},
			{
				"gx:requestType": "API",
				"gx:accessType": "digital",
				"gx:formatType": "application/json"
			}
		],
		"gx:name": "Data Space Connector",
		"gx:description": "This software component acts as a gateway in Data Spaces to exchange data and services in a trusted environment.",
        "gx:maintainedBy": {
          "id": "did:web:arlabdevelopments.com"
        },
		"gx:hostedOn": "https://arlabdevelopments.com/.well-known/soDatacenterEs_2210.json",	
		"gx:instanceOf": "https://arlabdevelopments.com/.well-known/reDataSpaceConnector_2210.json",
        "gx:tenantOwnedBy": {
          "id": "did:web:arlabdevelopments.com"
        },
		"gx:serviceAccessPoint": [
			{
				"gx:name": "Data space connector management access point",	
				"gx:host": "https://hackaton00.arlabdevelopments.com",	
				"gx:protocol": "SSL",
				"gx:version": "8.0.2",
				"gx:port": "8080",	
				"gx:openAPI": "https://hackaton00.arlabdevelopments.com:8080/api/swagger-ui/index.html"		
			}
		]
      }
    }
  ]
} 